Exploring Data with R
…
arrange() for sorting

gapminder %>% 
  filter(continent == "Asia") %>% 
  filter(year == 2007) %>% 
  arrange(gdpPercap)

## # A tibble: 33 x 6
##    country          continent  year lifeExp        pop gdpPercap
##    <fct>            <fct>     <int>   <dbl>      <int>     <dbl>
##  1 Myanmar          Asia       2007    62.1   47761980      944 
##  2 Afghanistan      Asia       2007    43.8   31889923      975.
##  3 Nepal            Asia       2007    63.8   28901790     1091.
##  4 Bangladesh       Asia       2007    64.1  150448339     1391.
##  5 Korea, Dem. Rep. Asia       2007    67.3   23301725     1593.
##  6 Cambodia         Asia       2007    59.7   14131858     1714.
##  7 Yemen, Rep.      Asia       2007    62.7   22211743     2281.
##  8 Vietnam          Asia       2007    74.2   85262356     2442.
##  9 India            Asia       2007    64.7 1110396331     2452.
## 10 Pakistan         Asia       2007    65.5  169270617     2606.
## # ... with 23 more rows
…
